<?xml version="1.0" encoding="UTF-8" standalone="no"?>
<!-- Created with Inkscape (http://www.inkscape.org/) -->

<svg
   xmlns:dc="http://purl.org/dc/elements/1.1/"
   xmlns:cc="http://creativecommons.org/ns#"
   xmlns:rdf="http://www.w3.org/1999/02/22-rdf-syntax-ns#"
   xmlns:svg="http://www.w3.org/2000/svg"
   xmlns="http://www.w3.org/2000/svg"
   xmlns:sodipodi="http://sodipodi.sourceforge.net/DTD/sodipodi-0.dtd"
   xmlns:inkscape="http://www.inkscape.org/namespaces/inkscape"
   width="250"
   height="250"
   viewBox="0 0 250 250"
   id="svg5121"
   version="1.1"
   inkscape:version="0.91 r13725"
   sodipodi:docname="libra.svg"
   inkscape:export-filename="/home/nakkata/Dropbox/www/Eli/DATA/Zodii/07.libra.png"
   inkscape:export-xdpi="72"
   inkscape:export-ydpi="72">
  <defs
     id="defs5123" />
  <sodipodi:namedview
     id="base"
     pagecolor="#ffffff"
     bordercolor="#666666"
     borderopacity="1.0"
     inkscape:pageopacity="0.0"
     inkscape:pageshadow="2"
     inkscape:zoom="0.98994949"
     inkscape:cx="81.916375"
     inkscape:cy="129.3326"
     inkscape:document-units="px"
     inkscape:current-layer="layer1"
     showgrid="false"
     units="px"
     inkscape:window-width="1920"
     inkscape:window-height="1029"
     inkscape:window-x="0"
     inkscape:window-y="0"
     inkscape:window-maximized="1" />
  <metadata
     id="metadata5126">
    <rdf:RDF>
      <cc:Work
         rdf:about="">
        <dc:format>image/svg+xml</dc:format>
        <dc:type
           rdf:resource="http://purl.org/dc/dcmitype/StillImage" />
        <dc:title />
      </cc:Work>
    </rdf:RDF>
  </metadata>
  <g
     inkscape:label="Layer 1"
     inkscape:groupmode="layer"
     id="layer1"
     transform="translate(0,-802.36216)">
    <g
       style="fill:#184474;fill-opacity:1"
       transform="matrix(1.6371701,0,0,-1.6371701,154.84113,907.66892)"
       id="g12538" />
    <g
       style="fill:#184474;fill-opacity:1"
       transform="matrix(1.6371701,0,0,-1.6371701,70.855483,861.90085)"
       id="g12542" />
    <g
       style="fill:#184474;fill-opacity:1"
       transform="matrix(1.6371701,0,0,-1.6371701,56.849165,924.22366)"
       id="g12546" />
    <path
       style="opacity:1;fill:#008000;fill-opacity:1;stroke:none;stroke-width:17.71653557;stroke-miterlimit:4;stroke-dasharray:none;stroke-opacity:1"
       d="M 0 0 L 0 250 L 250 250 L 250 0 L 0 0 z M 148.76562 18.806641 C 158.33275 19.09635 162.28432 30.613543 162.73633 35.128906 C 163.20456 39.789936 159.00195 43.982422 159.00195 43.982422 C 159.00195 43.982422 162.73021 43.982471 168.79102 47.707031 C 174.85182 51.431591 177.17773 55.632812 177.17773 55.632812 L 180.9043 57.029297 C 184.63213 58.425797 189.29102 63.084841 189.29102 68.675781 C 189.29102 74.265071 185.5625 77.998047 185.5625 77.998047 C 185.5625 77.998047 188.83098 79.397639 189.29102 86.386719 C 189.75107 93.375799 189.29054 97.570312 186.0293 97.570312 C 182.77133 97.570312 182.30078 101.76562 182.30078 101.76562 L 184.16797 100.83398 C 186.02943 99.900794 187.89564 105.0288 187.42578 113.41602 C 186.95918 121.80488 185.10032 132.05308 183.69727 137.17578 C 182.29421 142.29358 182.77146 142.76858 184.16797 146.49805 C 185.56284 150.22752 184.63294 157.6825 182.77148 156.75586 C 180.90511 155.82758 182.30134 149.29925 179.97656 146.49805 C 177.65178 143.69849 178.57422 139.0425 178.57422 135.78125 C 178.57422 132.52001 177.64291 129.72348 176.24805 121.33789 C 174.85154 112.95067 176.70865 103.15979 178.10352 99.433594 C 179.50166 95.704124 175.3125 92.445312 175.3125 92.445312 C 175.3125 92.445312 174.38622 96.640765 172.52148 101.29688 C 170.65674 105.95462 166.92578 108.75391 166.92578 108.75391 L 169.72656 112.94727 C 172.52612 117.14007 173.4484 126.46159 171.58203 131.58594 C 169.71893 136.70864 160.86523 137.64453 160.86523 137.64453 L 165.52148 137.18359 C 170.18086 136.72027 173.44922 133.91602 173.44922 133.91602 L 176.70898 140.9043 C 179.97186 147.89502 179.03936 153.95581 180.4375 163.74609 C 181.83237 173.53309 184.16772 170.73212 190.22852 179.58594 C 196.28769 188.44139 197.68194 200.55366 199.08008 208.47266 C 200.47659 216.38996 204.20646 218.73302 210.26562 223.85742 C 216.32642 228.98172 217.7173 226.18612 219.58203 228.98242 C 221.44513 231.77712 216.78697 231.314 212.13086 230.8457 C 207.47311 230.3791 201.40947 231.314 197.68164 230.8457 C 193.95544 230.3791 195.35138 225.25083 193.48828 216.86523 C 191.62354 208.48293 185.10036 207.54419 180.9043 199.15039 C 176.70823 190.75664 176.70857 185.64179 179.50977 182.37891 C 182.30933 179.1193 188.36328 187.97461 188.36328 187.97461 C 188.36328 187.97461 188.36426 183.77698 183.23828 180.05078 C 178.11231 176.31804 176.70898 181.91406 176.70898 181.91406 C 176.70898 181.91406 173.91677 181.91358 169.7207 178.65234 C 165.523 175.39274 161.33477 160.47848 155.74219 153.01953 C 150.14798 145.56222 150.61328 138.58154 150.61328 136.7168 C 150.61328 134.8537 155.28142 132.9855 158.54102 125.99805 C 161.80227 119.00734 154.3457 113.41602 154.3457 113.41602 C 154.3457 113.41602 157.6067 116.67746 156.67188 124.13477 C 155.7354 131.59371 147.82227 134.85352 147.82227 134.85352 C 147.82227 134.85352 147.35695 139.50807 144.0957 146.03711 C 140.83446 152.56778 126.38911 166.07118 122.19141 171.66211 C 117.99534 177.25632 117.52734 180.98438 117.52734 180.98438 L 116.13672 180.05078 C 114.73367 179.11269 109.60938 182.84961 109.60938 182.84961 L 111.94141 182.37891 C 114.2711 181.91231 117.06663 182.84884 116.13672 188.44141 C 115.20026 194.03398 100.75518 204.75029 97.027344 210.33789 C 93.297871 215.92399 95.631795 223.85684 93.298828 226.18164 C 90.974046 228.50474 81.651869 225.71978 78.390625 226.64648 C 75.131019 227.57968 63.474609 228.51015 63.474609 225.71875 C 63.474609 222.92755 66.737548 222.91797 69.537109 222.91797 C 72.331759 222.91797 77.70199 217.72261 86.308594 209.87891 C 88.546605 207.83411 91.77971 201.93884 94.048828 191.95703 C 96.316308 181.97521 104.02977 173.35337 105.84375 171.54102 C 107.65937 169.72704 104.93834 164.74019 106.29883 162.01758 C 107.65931 159.29332 112.64891 155.21112 114.46289 147.04492 C 116.27688 138.87871 121.72344 133.43345 123.53906 128.44336 C 125.35468 123.45326 131.25 129.34961 131.25 129.34961 L 127.16797 124.81445 L 127.62109 121.63672 C 128.07295 118.46225 132.1583 110.75028 134.42578 108.0293 C 136.6949 105.30669 138.96131 101.67731 138.50781 99.408203 C 138.05431 97.140723 136.69531 87.158203 136.69531 87.158203 L 134.87891 80.355469 C 133.06493 73.551389 135.33398 64.931641 135.33398 64.931641 C 135.33398 64.931641 123.99204 65.384354 119.00195 63.115234 C 114.01185 60.847754 119.45508 54.042969 119.45508 54.042969 L 116.73438 55.855469 C 114.01176 57.669449 115.82422 63.568359 115.82422 63.568359 L 112.19531 64.021484 C 108.56571 64.476624 89.964648 63.114761 85.429688 61.300781 C 80.893089 59.485151 78.625014 60.847754 75.447266 63.115234 C 74.672243 63.669508 73.952608 64.03118 73.265625 64.246094 C 73.369294 68.006393 73.479701 73.175974 73.505859 78.589844 C 73.988189 77.922544 74.592775 77.152857 75.363281 76.271484 C 78.539391 72.641874 83.982506 76.271583 89.427734 78.539062 C 94.871325 80.808182 99.408244 82.168513 102.13086 76.726562 C 104.85347 71.281332 96.686715 69.466468 94.871094 72.642578 C 93.055472 75.818688 97.59375 74.910156 97.59375 74.910156 C 97.59375 74.910156 94.418668 79.901984 90.789062 77.177734 C 87.161093 74.456754 91.240222 68.104256 94.417969 67.197266 C 97.594079 66.290276 105.7585 66.743946 105.30664 74.910156 C 105.09217 78.606886 102.72445 81.619092 99.464844 83.632812 C 99.549982 83.894762 99.634766 84.15427 99.634766 84.4375 C 99.634766 85.40179 99.139645 86.221136 98.416016 86.759766 L 108.89258 119.99414 C 109.40338 119.09697 110.3246 118.46289 111.42969 118.46289 C 113.05376 118.46289 114.37891 119.7864 114.37891 121.41211 C 114.37891 123.03782 113.05376 124.35938 111.42969 124.35938 C 111.18902 124.35938 110.96321 124.2747 110.74219 124.2207 C 109.14759 128.59031 105.03787 136.15625 95.326172 136.15625 C 85.897709 136.15625 83.046871 128.81923 82.15625 124.26953 C 82.005631 124.29243 81.870059 124.35938 81.712891 124.35938 C 80.082269 124.35938 78.767578 123.03782 78.767578 121.41211 C 78.767578 119.7864 80.082269 118.46289 81.712891 118.46289 C 83.002981 118.46289 84.068965 119.30837 84.466797 120.46094 L 95.070312 86.841797 C 94.66102 86.563477 94.333352 86.220646 94.107422 85.785156 C 91.342242 86.428526 88.436309 86.530638 85.798828 85.798828 C 79.816589 84.13656 75.320479 87.574741 73.330078 89.539062 C 73.178247 92.272789 72.924983 94.063753 72.507812 93.980469 C 72.133897 93.90665 71.849233 92.40685 71.625 90.140625 C 70.096302 88.44869 65.282695 83.935857 58.578125 85.798828 C 55.934095 86.530678 53.035027 86.428566 50.271484 85.785156 C 50.043917 86.220646 49.702836 86.561534 49.306641 86.839844 L 59.898438 120.46094 C 60.301181 119.30674 61.370066 118.46289 62.660156 118.46289 C 64.284229 118.46289 65.609375 119.7864 65.609375 121.41211 C 65.609375 123.03782 64.284229 124.35938 62.660156 124.35938 C 62.504625 124.35938 62.362189 124.29243 62.214844 124.26953 C 61.327498 128.81922 58.479244 136.15625 49.050781 136.15625 C 39.339088 136.15625 35.214693 128.59031 33.625 124.2207 C 33.399071 124.27476 33.18793 124.35938 32.947266 124.35938 C 31.315007 124.35938 29.998047 123.03782 29.998047 121.41211 C 29.998047 119.7864 31.315007 118.46289 32.947266 118.46289 C 34.045807 118.46289 34.974267 119.09861 35.478516 119.99414 L 45.953125 86.759766 C 45.239319 86.219506 44.740234 85.40179 44.740234 84.4375 C 44.740234 84.15427 44.826084 83.894762 44.896484 83.632812 C 41.643427 81.619092 39.270047 78.606886 39.070312 74.910156 C 38.616816 66.743946 46.782874 66.290276 49.958984 67.197266 C 53.13182 68.105896 57.219135 74.457077 53.587891 77.179688 C 49.959922 79.902308 46.783203 74.910156 46.783203 74.910156 C 46.783203 74.910156 51.318207 75.817048 49.505859 72.642578 C 47.690238 69.466468 39.523796 71.281332 42.248047 76.726562 C 44.969024 82.168513 49.507265 80.808496 54.949219 78.541016 C 60.394447 76.271896 65.837246 72.643524 69.011719 76.271484 C 69.886588 77.271208 70.53973 78.119442 71.048828 78.84375 C 71.038109 78.447674 71.021418 78.079884 71.011719 77.681641 C 70.894222 72.568311 70.864941 67.94061 70.857422 64.419922 C 69.674899 64.246366 68.524201 63.736712 67.28125 63.115234 C 64.560273 61.754744 63.653926 59.485069 64.107422 55.855469 C 64.560918 52.227499 75.902015 51.772332 79.078125 53.132812 C 82.254235 54.494942 92.233346 50.865974 99.039062 49.958984 C 105.84314 49.051994 111.74264 52.227364 116.73438 50.865234 C 121.72283 49.504744 125.35483 52.679224 128.5293 50.865234 C 131.70541 49.051254 140.32477 46.783203 147.58398 46.783203 C 154.84156 46.783203 156.6543 51.773438 156.6543 51.773438 C 156.6543 51.773438 156.65504 49.504975 155.74805 45.421875 C 154.84106 41.338775 151.21094 38.164062 151.21094 38.164062 L 152.57227 40.884766 C 153.93276 43.607386 154.38672 46.783203 154.38672 46.783203 C 154.38672 46.783203 153.47832 45.422563 148.94336 44.970703 C 144.40676 44.513933 138.96289 45.875 138.96289 45.875 L 138.05469 43.607422 L 136.24219 43.607422 C 134.42657 43.607422 133.06493 42.246048 134.87891 39.523438 C 136.69454 36.802458 134.77344 31.402344 134.77344 31.402344 C 134.77344 31.402344 132.43945 30.933125 132.43945 27.671875 C 132.43945 24.410635 137.57359 19.282683 147.82227 18.814453 C 148.14264 18.799821 148.45701 18.797295 148.76562 18.806641 z M 164.82227 67.199219 C 164.82227 67.199219 164.82217 75.364639 162.55469 81.261719 C 160.28557 87.158809 156.65504 94.417738 155.74805 99.861328 L 154.8418 105.30664 C 154.8418 105.30664 158.92514 93.057611 162.09961 86.707031 C 165.27736 80.354811 164.82227 67.199219 164.82227 67.199219 z M 46.373047 87.039062 L 38.369141 122.08203 C 40.700471 122.33743 43.679073 122.54492 47.238281 122.54492 C 51.015232 122.54492 54.282527 122.22642 56.849609 121.86133 L 48.917969 87.099609 C 48.54142 87.274779 48.130167 87.386719 47.691406 87.386719 C 47.206803 87.386719 46.767605 87.243713 46.373047 87.039062 z M 98.005859 87.039062 C 97.601478 87.243713 97.168828 87.386719 96.6875 87.386719 C 96.238916 87.386719 95.836223 87.273149 95.453125 87.099609 L 87.521484 121.86133 C 90.095115 122.22642 93.355172 122.54688 97.138672 122.54688 C 100.69788 122.54688 103.67031 122.33579 106 122.08203 L 98.005859 87.039062 z "
       transform="translate(0,802.36216)"
       id="rect4136" />
  </g>
</svg>
